Introduction to tmtyro • tmtyro
…
Get a corpus

Collecting texts from Project Gutenberg will be a common first step
for many. The function get_gutenberg_corpus() needs only
the Gutenberg ID number, found in the book’s URL. The resulting table
draws metadata from the gutenbergr package, with columns for
“gutenberg_id”, “title”, “author”, headers such as those used for
chapters, and “text.”

library(tmtyro)
joyce <- get_gutenberg_corpus(c(2814, 4217, 4300))

joyce
#> # A tibble: 10,810 × 7
#>    gutenberg_id title     author       part        section subsection text      
#>           <int> <chr>     <chr>        <chr>       <chr>   <chr>      <chr>     
#>  1         2814 Dubliners Joyce, James THE SISTERS NA      NA         There was…
#>  2         2814 Dubliners Joyce, James THE SISTERS NA      NA         Old Cotte…
#>  3         2814 Dubliners Joyce, James THE SISTERS NA      NA         “No, I wo…
#>  4         2814 Dubliners Joyce, James THE SISTERS NA      NA         He began …
#>  5         2814 Dubliners Joyce, James THE SISTERS NA      NA         “I have m…
#>  6         2814 Dubliners Joyce, James THE SISTERS NA      NA         He began …
#>  7         2814 Dubliners Joyce, James THE SISTERS NA      NA         “Well, so…
#>  8         2814 Dubliners Joyce, James THE SISTERS NA      NA         “Who?” sa…
#>  9         2814 Dubliners Joyce, James THE SISTERS NA      NA         “Father F…
#> 10         2814 Dubliners Joyce, James THE SISTERS NA      NA         “Is he de…
#> # ℹ 10,800 more rows

In some cases, headers may make better sense if read as part of the
text, as in the “Aeolus” chapter of Ulysses, where frequent
newspaper headlines pepper the page:

ulysses <- get_gutenberg_corpus(4300)

# dplyr is used here to choose a smaller example for comparison
ulysses |> 
  dplyr::filter(section == "[ 7 ]")
#> # A tibble: 476 × 7
#>    gutenberg_id title   author       part   section subsection             text 
#>           <int> <chr>   <chr>        <chr>  <chr>   <chr>                  <chr>
#>  1         4300 Ulysses Joyce, James — II — [ 7 ]   IN THE HEART OF THE H… Befo…
#>  2         4300 Ulysses Joyce, James — II — [ 7 ]   IN THE HEART OF THE H… —Rat…
#>  3         4300 Ulysses Joyce, James — II — [ 7 ]   IN THE HEART OF THE H… —Com…
#>  4         4300 Ulysses Joyce, James — II — [ 7 ]   IN THE HEART OF THE H… Righ…
#>  5         4300 Ulysses Joyce, James — II — [ 7 ]   IN THE HEART OF THE H… —Sta…
#>  6         4300 Ulysses Joyce, James — II — [ 7 ]   THE WEARER OF THE CRO… Unde…
#>  7         4300 Ulysses Joyce, James — II — [ 7 ]   GENTLEMEN OF THE PRESS Gros…
#>  8         4300 Ulysses Joyce, James — II — [ 7 ]   GENTLEMEN OF THE PRESS —The…
#>  9         4300 Ulysses Joyce, James — II — [ 7 ]   GENTLEMEN OF THE PRESS —Jus…
#> 10         4300 Ulysses Joyce, James — II — [ 7 ]   GENTLEMEN OF THE PRESS The …
#> # ℹ 466 more rows

These can be corrected with move_header_to_text().

ulysses <- get_gutenberg_corpus(4300) |> 
  move_header_to_text(subsection)

# dplyr is used here to choose a smaller example for comparison
ulysses |> 
  dplyr::filter(section == "[ 7 ]")
#> # A tibble: 539 × 6
#>    gutenberg_id title   author       part   section text                        
#>           <int> <chr>   <chr>        <chr>  <chr>   <chr>                       
#>  1         4300 Ulysses Joyce, James — II — [ 7 ]   IN THE HEART OF THE HIBERNI…
#>  2         4300 Ulysses Joyce, James — II — [ 7 ]   Before Nelson’s pillar tram…
#>  3         4300 Ulysses Joyce, James — II — [ 7 ]   —Rathgar and Terenure!      
#>  4         4300 Ulysses Joyce, James — II — [ 7 ]   —Come on, Sandymount Green! 
#>  5         4300 Ulysses Joyce, James — II — [ 7 ]   Right and left parallel cla…
#>  6         4300 Ulysses Joyce, James — II — [ 7 ]   —Start, Palmerston Park!    
#>  7         4300 Ulysses Joyce, James — II — [ 7 ]   THE WEARER OF THE CROWN     
#>  8         4300 Ulysses Joyce, James — II — [ 7 ]   Under the porch of the gene…
#>  9         4300 Ulysses Joyce, James — II — [ 7 ]   GENTLEMEN OF THE PRESS      
#> 10         4300 Ulysses Joyce, James — II — [ 7 ]   Grossbooted draymen rolled …
#> # ℹ 529 more rows

Headers can be moved for specific texts in a corpus by specifying a
filter like title == "Ulysses":

joyce <- joyce |> 
  move_header_to_text(subsection, title == "Ulysses")

joyce |> 
  dplyr::filter(section == "[ 7 ]")
#> # A tibble: 539 × 6
#>    gutenberg_id title   author       part   section text                        
#>           <int> <chr>   <chr>        <chr>  <chr>   <chr>                       
#>  1         4300 Ulysses Joyce, James — II — [ 7 ]   IN THE HEART OF THE HIBERNI…
#>  2         4300 Ulysses Joyce, James — II — [ 7 ]   Before Nelson’s pillar tram…
#>  3         4300 Ulysses Joyce, James — II — [ 7 ]   —Rathgar and Terenure!      
#>  4         4300 Ulysses Joyce, James — II — [ 7 ]   —Come on, Sandymount Green! 
#>  5         4300 Ulysses Joyce, James — II — [ 7 ]   Right and left parallel cla…
#>  6         4300 Ulysses Joyce, James — II — [ 7 ]   —Start, Palmerston Park!    
#>  7         4300 Ulysses Joyce, James — II — [ 7 ]   THE WEARER OF THE CROWN     
#>  8         4300 Ulysses Joyce, James — II — [ 7 ]   Under the porch of the gene…
#>  9         4300 Ulysses Joyce, James — II — [ 7 ]   GENTLEMEN OF THE PRESS      
#> 10         4300 Ulysses Joyce, James — II — [ 7 ]   Grossbooted draymen rolled …
#> # ℹ 529 more rows
…
load_texts() prepares a set of documents for study,
either from a table or from a folder of files.

From a table

A table like the one prepared by get_gutenberg_corpus()
can be prepared in tidytext format with one word per row using
load_texts().

corpus_ulysses <- ulysses |> 
  load_texts()

corpus_ulysses
#> # A tibble: 265,043 × 6
#>    doc_id title   author       part  section word     
#>     <int> <chr>   <chr>        <chr> <chr>   <chr>    
#>  1   4300 Ulysses Joyce, James — I — [ 1 ]   stately  
#>  2   4300 Ulysses Joyce, James — I — [ 1 ]   plump    
#>  3   4300 Ulysses Joyce, James — I — [ 1 ]   buck     
#>  4   4300 Ulysses Joyce, James — I — [ 1 ]   mulligan 
#>  5   4300 Ulysses Joyce, James — I — [ 1 ]   came     
#>  6   4300 Ulysses Joyce, James — I — [ 1 ]   from     
#>  7   4300 Ulysses Joyce, James — I — [ 1 ]   the      
#>  8   4300 Ulysses Joyce, James — I — [ 1 ]   stairhead
#>  9   4300 Ulysses Joyce, James — I — [ 1 ]   bearing  
#> 10   4300 Ulysses Joyce, James — I — [ 1 ]   a        
#> # ℹ 265,033 more rows
…
In this example, the “austen” folder is found within the current
project. If it was instead found somewhere else on the computer, the
complete path can be passed like this:
load_texts("~/corpora/austen")

Choose a different doc_id

Documents loaded from get_gutenberg_corpus() use the
gutenberg_id column as their document identifier.

corpus_dubliners <- get_gutenberg_corpus(2814) |> 
  load_texts(lemma = TRUE, pos = TRUE)

corpus_dubliners
#> # A tibble: 67,885 × 7
#>    doc_id title     author       part        word  pos   lemma
#>     <int> <chr>     <chr>        <chr>       <chr> <chr> <chr>
#>  1   2814 Dubliners Joyce, James THE SISTERS there EX    there
#>  2   2814 Dubliners Joyce, James THE SISTERS was   VBD   be   
#>  3   2814 Dubliners Joyce, James THE SISTERS no    DT    no   
#>  4   2814 Dubliners Joyce, James THE SISTERS hope  NN    hope 
#>  5   2814 Dubliners Joyce, James THE SISTERS for   IN    for  
#>  6   2814 Dubliners Joyce, James THE SISTERS him   PRP   him  
#>  7   2814 Dubliners Joyce, James THE SISTERS this  DT    this 
#>  8   2814 Dubliners Joyce, James THE SISTERS time  NN    time 
#>  9   2814 Dubliners Joyce, James THE SISTERS it    PRP   it   
#> 10   2814 Dubliners Joyce, James THE SISTERS was   VBD   be   
#> # ℹ 67,875 more rows

If a different column is preferred, identify_by() makes
the switch. In this example from Dubliners, for instance, each
story’s title is shown under “part”. The identify_by()
function makes it easy to identify documents by that column:

corpus_dubliners <- corpus_dubliners |> 
  identify_by(part)

corpus_dubliners
#> # A tibble: 67,885 × 6
#>    title     author       doc_id      word  pos   lemma
#>    <chr>     <chr>        <fct>       <chr> <chr> <chr>
#>  1 Dubliners Joyce, James THE SISTERS there EX    there
#>  2 Dubliners Joyce, James THE SISTERS was   VBD   be   
#>  3 Dubliners Joyce, James THE SISTERS no    DT    no   
#>  4 Dubliners Joyce, James THE SISTERS hope  NN    hope 
#>  5 Dubliners Joyce, James THE SISTERS for   IN    for  
#>  6 Dubliners Joyce, James THE SISTERS him   PRP   him  
#>  7 Dubliners Joyce, James THE SISTERS this  DT    this 
#>  8 Dubliners Joyce, James THE SISTERS time  NN    time 
#>  9 Dubliners Joyce, James THE SISTERS it    PRP   it   
#> 10 Dubliners Joyce, James THE SISTERS was   VBD   be   
#> # ℹ 67,875 more rows
…
separate_ngrams() separatesa single column of n-grams
into one column per word.

Vocabulary richness

The add_vocabulary() function adds measurements of
vocabulary richness, including cumulative vocabulary size, indicators of
hapax legomena, and markers of progress.

vocab_dubliners <- 
  corpus_dubliners |> 
  add_vocabulary()

vocab_dubliners
#> # A tibble: 67,885 × 13
#>    title   author doc_id word  pos   lemma new_word hapax vocabulary   ttr   htr
#>    <chr>   <chr>  <fct>  <chr> <chr> <chr> <lgl>    <lgl>      <int> <dbl> <dbl>
#>  1 Dublin… Joyce… The S… there EX    there TRUE     FALSE          1   1   0    
#>  2 Dublin… Joyce… The S… was   VBD   be    TRUE     FALSE          2   1   0    
#>  3 Dublin… Joyce… The S… no    DT    no    TRUE     FALSE          3   1   0    
#>  4 Dublin… Joyce… The S… hope  NN    hope  TRUE     TRUE           4   1   0.25 
#>  5 Dublin… Joyce… The S… for   IN    for   TRUE     FALSE          5   1   0.2  
#>  6 Dublin… Joyce… The S… him   PRP   him   TRUE     FALSE          6   1   0.167
#>  7 Dublin… Joyce… The S… this  DT    this  TRUE     FALSE          7   1   0.143
#>  8 Dublin… Joyce… The S… time  NN    time  TRUE     FALSE          8   1   0.125
#>  9 Dublin… Joyce… The S… it    PRP   it    TRUE     FALSE          9   1   0.111
#> 10 Dublin… Joyce… The S… was   VBD   be    FALSE    FALSE          9   0.9 0.1  
#> # ℹ 67,875 more rows
#> # ℹ 2 more variables: progress_words <int>, progress_percent <dbl>

Sentiment

add_sentiment() adds measurements of sentiment using the
“Bing” lexicon by default.

sentiment_dubliners <- corpus_dubliners |> 
  add_sentiment()

sentiment_dubliners

#> # A tibble: 67,946 × 5
#>    title     author       doc_id      word  sentiment
#>    <chr>     <chr>        <fct>       <chr> <chr>    
#>  1 Dubliners Joyce, James The Sisters there NA       
#>  2 Dubliners Joyce, James The Sisters was   NA       
#>  3 Dubliners Joyce, James The Sisters no    NA       
#>  4 Dubliners Joyce, James The Sisters hope  NA       
#>  5 Dubliners Joyce, James The Sisters for   NA       
#>  6 Dubliners Joyce, James The Sisters him   NA       
#>  7 Dubliners Joyce, James The Sisters this  NA       
#>  8 Dubliners Joyce, James The Sisters time  NA       
#>  9 Dubliners Joyce, James The Sisters it    NA       
#> 10 Dubliners Joyce, James The Sisters was   NA       
#> # ℹ 67,936 more rows

Dropping empty rows

Since many words may not be found in a given sentiment lexicon,
drop_empty() makes it easy to remove empty rows.

sentiment_dubliners |> 
  drop_empty(sentiment)
#> # A tibble: 3,868 × 5
#>    title     author       doc_id      word      sentiment
#>    <chr>     <chr>        <fct>       <chr>     <chr>    
#>  1 Dubliners Joyce, James The Sisters evenly    positive 
#>  2 Dubliners Joyce, James The Sisters dead      negative 
#>  3 Dubliners Joyce, James The Sisters darkened  negative 
#>  4 Dubliners Joyce, James The Sisters blind     negative 
#>  5 Dubliners Joyce, James The Sisters idle      negative 
#>  6 Dubliners Joyce, James The Sisters strangely negative 
#>  7 Dubliners Joyce, James The Sisters like      positive 
#>  8 Dubliners Joyce, James The Sisters like      positive 
#>  9 Dubliners Joyce, James The Sisters sinful    negative 
#> 10 Dubliners Joyce, James The Sisters fear      negative 
#> # ℹ 3,858 more rows

Choosing a sentiment lexicon

The lexicon can be chosen at measurement.

sentiment_ulysses <- ulysses |> 
  load_texts() |> 
  identify_by(section) |> 
  add_sentiment(lexicon = "nrc")

sentiment_ulysses |> 
  drop_empty(sentiment)

#> # A tibble: 63,006 × 6
#>    title   author       part  doc_id word    sentiment   
#>    <chr>   <chr>        <chr> <fct>  <chr>   <chr>       
#>  1 Ulysses Joyce, James — I — [ 1 ]  stately positive    
#>  2 Ulysses Joyce, James — I — [ 1 ]  plump   anticipation
#>  3 Ulysses Joyce, James — I — [ 1 ]  buck    fear        
#>  4 Ulysses Joyce, James — I — [ 1 ]  buck    negative    
#>  5 Ulysses Joyce, James — I — [ 1 ]  buck    positive    
#>  6 Ulysses Joyce, James — I — [ 1 ]  buck    surprise    
#>  7 Ulysses Joyce, James — I — [ 1 ]  razor   fear        
#>  8 Ulysses Joyce, James — I — [ 1 ]  dark    sadness     
#>  9 Ulysses Joyce, James — I — [ 1 ]  fearful fear        
#> 10 Ulysses Joyce, James — I — [ 1 ]  fearful negative    
#> # ℹ 62,996 more rows
N-grams

Following the same pattern, add_ngrams() adds columns
for n-length phrases of words. By default, it prepares bigrams (or
2-grams).

corpus_joyce <- joyce |> 
  load_texts() |> 
  identify_by(title)

bigrams_joyce <- corpus_joyce |> 
  add_ngrams()

bigrams_joyce
#> # A tibble: 417,846 × 6
#>    doc_id    author       part        section word_1 word_2
#>    <fct>     <chr>        <chr>       <chr>   <chr>  <chr> 
#>  1 Dubliners Joyce, James THE SISTERS NA      there  was   
#>  2 Dubliners Joyce, James THE SISTERS NA      was    no    
#>  3 Dubliners Joyce, James THE SISTERS NA      no     hope  
#>  4 Dubliners Joyce, James THE SISTERS NA      hope   for   
#>  5 Dubliners Joyce, James THE SISTERS NA      for    him   
#>  6 Dubliners Joyce, James THE SISTERS NA      him    this  
#>  7 Dubliners Joyce, James THE SISTERS NA      this   time  
#>  8 Dubliners Joyce, James THE SISTERS NA      time   it    
#>  9 Dubliners Joyce, James THE SISTERS NA      it     was   
#> 10 Dubliners Joyce, James THE SISTERS NA      was    the   
#> # ℹ 417,836 more rows

Other n-grams can be chosen by passing a vector of numbers.

trigrams_joyce <- corpus_joyce |> 
  add_ngrams(1:3)

trigrams_joyce
#> # A tibble: 417,846 × 7
#>    doc_id    author       part        section word_1 word_2 word_3
#>    <fct>     <chr>        <chr>       <chr>   <chr>  <chr>  <chr> 
#>  1 Dubliners Joyce, James THE SISTERS NA      there  was    no    
#>  2 Dubliners Joyce, James THE SISTERS NA      was    no     hope  
#>  3 Dubliners Joyce, James THE SISTERS NA      no     hope   for   
#>  4 Dubliners Joyce, James THE SISTERS NA      hope   for    him   
#>  5 Dubliners Joyce, James THE SISTERS NA      for    him    this  
#>  6 Dubliners Joyce, James THE SISTERS NA      him    this   time  
#>  7 Dubliners Joyce, James THE SISTERS NA      this   time   it    
#>  8 Dubliners Joyce, James THE SISTERS NA      time   it     was   
#>  9 Dubliners Joyce, James THE SISTERS NA      it     was    the   
#> 10 Dubliners Joyce, James THE SISTERS NA      was    the    third 
#> # ℹ 417,836 more rows

Tf-idf

Unlike other measurements, term frequency–inverse document frequency
doesn’t preserve word order, and it reduces documents to one instance of
each token. Since any use of tf-idf can’t merely add a column,
summarize_tf_idf() avoids the add_ naming
convention. Results are returned in descending strength of tf-idf.

tfidf_dubliners <- corpus_dubliners |> 
  summarize_tf_idf()

tfidf_dubliners
#> # A tibble: 17,656 × 6
#>    doc_id                        word         n      tf   idf tf_idf
#>    <fct>                         <chr>    <int>   <dbl> <dbl>  <dbl>
#>  1 Clay                          maria       40 0.0151   2.71 0.0409
#>  2 Two Gallants                  corley      46 0.0117   2.71 0.0318
#>  3 After the Race                jimmy       24 0.0107   2.71 0.0291
#>  4 Ivy Day in the Committee Room henchy      53 0.0101   2.71 0.0272
#>  5 A Little Cloud                gallaher    48 0.00964  2.71 0.0261
#>  6 The Dead                      gabriel    142 0.00906  2.71 0.0245
#>  7 Grace                         kernan      66 0.00873  2.71 0.0236
#>  8 Ivy Day in the Committee Room o’connor    45 0.00854  2.71 0.0231
#>  9 A Little Cloud                chandler    41 0.00823  2.71 0.0223
#> 10 A Mother                      kearney     50 0.0110   2.01 0.0223
#> # ℹ 17,646 more rows

Tf-idf’s method understandably emphasizes proper nouns that are
unique to each document. The remove_names argument in
load_texts() can help to filter out words that appear only
in capitalized form. Removing names from Dubliners makes a
noticeable difference in tf-idf results:

tfidf_dubliners <- get_gutenberg_corpus(2814) |> 
  load_texts(remove_names = TRUE) |> 
  identify_by(part) |> 
  standardize_titles() |> 
  summarize_tf_idf()

tfidf_dubliners
#> # A tibble: 16,721 × 6
#>    doc_id         word         n      tf   idf  tf_idf
#>    <fct>          <chr>    <int>   <dbl> <dbl>   <dbl>
#>  1 The Dead       aunt       101 0.00693 1.61  0.0112 
#>  2 Araby          bazaar       9 0.00406 2.71  0.0110 
#>  3 The Sisters    aunt        19 0.00649 1.61  0.0104 
#>  4 After the Race cars         6 0.00286 2.71  0.00773
#>  5 An Encounter   we          58 0.0189  0.405 0.00767
#>  6 After the Race car         11 0.00524 1.32  0.00692
#>  7 Eveline        avenue       4 0.00225 2.71  0.00610
#>  8 Counterparts   weathers    11 0.00283 2.01  0.00570
#>  9 Counterparts   pa           8 0.00206 2.71  0.00557
#> 10 The Sisters    snuff        6 0.00205 2.71  0.00555
#> # ℹ 16,711 more rows
…
